^C:\USERS\FRANKTHETANK\DESKTOP\GREYJACK\GREYJACK\SOURCE.CPP
/c /ZI /nologo /W3 /WX- /sdl /Od /Oy- /D WIN32 /D _DEBUG /D _CONSOLE /D _UNICODE /D UNICODE /Gm /EHsc /RTC1 /MDd /GS /fp:precise /Zc:wchar_t /Zc:forScope /Zc:inline /Fo"DEBUG\\" /Fd"DEBUG\VC140.PDB" /Gd /TP /analyze- C:\USERS\FRANKTHETANK\DESKTOP\GREYJACK\GREYJACK\SOURCE.CPP
^C:\USERS\FRANKTHETANK\DESKTOP\GREYJACK\GREYJACK\MAIN.CPP
/c /ZI /nologo /W3 /WX- /sdl /Od /Oy- /D WIN32 /D _DEBUG /D _CONSOLE /D _UNICODE /D UNICODE /Gm /EHsc /RTC1 /MDd /GS /fp:precise /Zc:wchar_t /Zc:forScope /Zc:inline /Fo"DEBUG\\" /Fd"DEBUG\VC140.PDB" /Gd /TP /analyze- C:\USERS\FRANKTHETANK\DESKTOP\GREYJACK\GREYJACK\MAIN.CPP
