^C:\USERS\FRANC\DESKTOP\PRJ PORTFOLIO\GREYJACK\GREYJACK\X64\RELEASE\MAINBACK.OBJ
C:\USERS\FRANC\DESKTOP\PRJ PORTFOLIO\GREYJACK\X64\RELEASE\GREYJACK.EXE
C:\USERS\FRANC\DESKTOP\PRJ PORTFOLIO\GREYJACK\X64\RELEASE\GREYJACK.PDB
